Spotify-Predicting songsâ€™ popularity with linear regression
…
From the summary obtained, we can notice that some songs have
popularity = 0, which doesnâ€™t seem to be a correct value since all the
songs considered are popular ones. Thus, it is better to remove these
values:

songs_normalize %>% select(1:18) %>% filter(popularity == 0) %>% arrange(year)

## # A tibble: 126 x 18
##    artist  song  duration_ms explicit  year popularity danceability energy   key
##    <chr>   <chr>       <dbl> <lgl>    <dbl>      <dbl>        <dbl>  <dbl> <dbl>
##  1 Oasis   Go L~      278666 FALSE     2000          0        0.408  0.849     2
##  2 Musiq ~ Love       304666 FALSE     2000          0        0.569  0.385     1
##  3 Jennif~ Ain'~      246160 FALSE     2001          0        0.707  0.869     5
##  4 Baseme~ Romeo      217493 FALSE     2001          0        0.713  0.829     2
##  5 Electr~ Dang~      214600 FALSE     2003          0        0.66   0.698    11
##  6 Baseme~ Good~      282306 FALSE     2003          0        0.571  0.968     5
##  7 Mariah~ It's~      203360 FALSE     2005          0        0.8    0.633     8
##  8 Mariah~ Don'~      233866 FALSE     2005          0        0.7    0.529    10
##  9 T-Pain  I'm ~      231040 FALSE     2005          0        0.722  0.329     0
## 10 T-Pain  I'm ~      265333 TRUE      2005          0        0.731  0.368     8
## # ... with 116 more rows, and 9 more variables: loudness <dbl>, mode <dbl>,
## #   speechiness <dbl>, acousticness <dbl>, instrumentalness <dbl>,
## #   liveness <dbl>, valence <dbl>, tempo <dbl>, genre <chr>
…
easy listening

hip hop, latin, Dance/Electronic

hip hop, country

As we can see, there is a genre called set(), which is an incorrect
input we need to get rid of. Once weâ€™ll have cleaned our dataset,
eliminating set() genre and popularity = 0 values, weâ€™ll be ready for
analysis

sg %>% select(1:18)%>% filter(genre == 'set()') %>% print()  ##set() has just 22 entries

## # A tibble: 22 x 18
##    artist  song  duration_ms explicit  year popularity danceability energy   key
##    <chr>   <chr>       <dbl> <lgl>    <dbl>      <dbl>        <dbl>  <dbl> <dbl>
##  1 Wheatus Teen~      241666 TRUE      1999         71        0.625  0.85      4
##  2 Las Ke~ The ~      213973 FALSE     2002         66        0.607  0.923     1
##  3 Blazin~ Cros~      188693 FALSE     2012         40        0.661  0.746     4
##  4 George~ Amaz~      265826 FALSE     2004         57        0.805  0.754    10
##  5 DJ Cas~ Cha ~      222146 FALSE     2004         51        0.853  0.911    11
##  6 Eamon   Fuck~      225106 TRUE      2004         64        0.828  0.653     0
##  7 Brian ~ Almo~      229826 FALSE     2004         42        0.561  0.452     9
##  8 Meck    Thun~      189800 FALSE     2005         46        0.679  0.922     2
##  9 Ida Co~ Let ~      151973 FALSE     2012         43        0.762  0.754     0
## 10 Camill~ The ~      152333 FALSE     2006         17        0.847  0.861     6
## # ... with 12 more rows, and 9 more variables: loudness <dbl>, mode <dbl>,
## #   speechiness <dbl>, acousticness <dbl>, instrumentalness <dbl>,
## #   liveness <dbl>, valence <dbl>, tempo <dbl>, genre <chr>
…
